Chapter 3 Geocoding | The WIPO Patent Analytics Handbook
…
“CONNECTION_ERROR” (added)

When running a long set of addresses the CONNECTION_ERROR can creep into the data, so be aware of this.

We can now join our data sets together. We will use left_join() for convenience and specify the column to join on as the shared locations column.

results <- 
  dplyr::left_join(affiliation_records, coordaffil, by = "locations")

We can identify the results found so far by filtering on the status field which will show “OK” where there is a return and “ZERO_RESULTS” where the geocoding did not work:

results %>%
  filter(., status == "OK")

## # A tibble: 5,187 × 10
##    records locati…¹    id   lat    lng locat…² forma…³ status error…⁴ geocode_dt
##      <int> <chr>    <int> <dbl>  <dbl> <chr>   <chr>   <chr>  <chr>   <date>    
##  1       1 AAHL, V…     1 -38.2 144.   ROOFTOP 5 Port… OK     ""      2018-05-22
##  2       1 AAHRI, …     2  13.8 101.   GEOMET… 50, กร… OK     ""      2018-05-22
##  3       1 Aarhus …     3  56.2  10.2  ROOFTOP Nordre… OK     ""      2018-05-22
##  4       1 Aarhus …     4  56.2  10.2  GEOMET… Nørreb… OK     ""      2018-05-22
##  5      13 Aarhus …     5  56.2  10.2  ROOFTOP Nordre… OK     ""      2018-05-22
##  6       3 Aarhus …     6  56.2  10.2  ROOFTOP Nordre… OK     ""      2018-05-22
##  7       1 Abasyn …     7  34.0  71.6  GEOMET… Ring R… OK     ""      2018-05-22
##  8       1 Abdul W…     8  34.2  72.0  GEOMET… Nowshe… OK     ""      2018-05-22
##  9       1 Abertay…     9  56.5  -2.97 GEOMET… Bell S… OK     ""      2018-05-22
## 10       1 Aberyst…    10  52.4  -4.07 GEOMET… Pengla… OK     ""      2018-05-22
## # … with 5,177 more rows, and abbreviated variable names ¹​locations,
## #   ²​location_type, ³​formatted_address, ⁴​error_message
## # ℹ Use `print(n = ...)` to see more rows
…
“ROOFTOP” indicates that the returned result is a precise geocode for which we have location information accurate down to street address precision.

“RANGE_INTERPOLATED” indicates that the returned result reflects an approximation (usually on a road) interpolated between two precise points (such as intersections). Interpolated results are generally returned when rooftop geocodes are unavailable for a street address.

“GEOMETRIC_CENTER” indicates that the returned result is the geometric center of a result such as a polyline (for example, a street) or polygon (region).

“APPROXIMATE” indicates that the returned result is approximate.”

What this tells us is that Google believes it has reached rooftop accuracy for 2155 records but has selected the geometric centre or an approximate value for around 58% of the entries. Lets take a closer look at the geometric center data.

results_complete %>% 
  filter(location_type == "GEOMETRIC_CENTER") %>% 
  select(locations, lat, lng, formatted_address)

## # A tibble: 1,848 × 4
##    locations                                 lat    lng formatted_address       
##    <chr>                                   <dbl>  <dbl> <chr>                   
##  1 AAHRI, Bangkok, Thailand                 13.8 101.   50, กรมประมง, ถนนพหลโยธิ…
##  2 Aarhus Univ Hosp, Aarhus, Denmark        56.2  10.2  Nørrebrogade, 8000 Aarh…
##  3 Abasyn Univ, Peshawar, Pakistan          34.0  71.6  Ring Road, Charsadda Li…
##  4 Abdul Wali Khan Univ, Mardan, Pakistan   34.2  72.0  Nowshera Mardan Rd, Mus…
##  5 Abertay Univ, Dundee DD1 1HG, Scotland   56.5  -2.97 Bell St, Dundee DD1 1HG…
##  6 Aberystwyth Univ, Ceredigion, Wales      52.4  -4.07 Penglais Campus, Pengla…
##  7 Aberystwyth Univ, Dyfed, Wales           52.4  -4.07 Penglais Campus, Pengla…
##  8 ABRII, Karaj, Iran                       35.8  51.0  Karaj, Alborz Province,…
##  9 Absyn Univ Peshawar, Peshawar, Pakistan  34.0  71.6  Ring Road, Charsadda Li…
## 10 Acad Ciencias Cuba, C Habana, Cuba       23.1 -82.4  Havana, Cuba            
## # … with 1,838 more rows
## # ℹ Use `print(n = ...)` to see more rows

A review of these results suggests that the geometric center data is pretty good. In the past we might have ended up in a different country. But what about the approximate results?

results_complete %>% 
  filter(location_type == "APPROXIMATE") %>% 
  select(locations, lat, lng, formatted_address)

## # A tibble: 1,195 × 4
##    locations                                                 lat     lng forma…¹
##    <chr>                                                   <dbl>   <dbl> <chr>  
##  1 Acad Sci Czech Republic, Brno, Czech Republic           49.2   16.6   Brno, …
##  2 Acad Sci Czech Republic, Ceske Budejovice, Czech Repu…  49.0   14.5   Ceske …
##  3 Acad Sinica, Beijing, Peoples R China                   39.9  116.    Beijin…
##  4 Achva Acad Coll, Mobile Post Shikmim, Israel            31.7   34.6   Shikmi…
##  5 ADAS UK Ltd, Cambs, England                             52.2    0.122 Cambri…
##  6 Adv Choice Econ Pty Ltd, Bateman, Australia            -25.3  134.    Austra…
##  7 AFRIMS Entomol Lab, Kamphaeng Phet, Thailand            16.5   99.5   Kampha…
##  8 Agcy Consultat & Res Oceanog, La Roche Canillac, Fran…  45.2    1.97  19320 …
##  9 Agcy Marine & Fisheries Res Indonesia, Jakarta, Indon…  -6.18 107.    Jakart…
## 10 Agcy Marine & Fisheries Res, Jakarta, Indonesia         -6.18 107.    Jakart…
## # … with 1,185 more rows, and abbreviated variable name ¹​formatted_address
## # ℹ Use `print(n = ...)` to see more rows
…
##      location_type    n      prop
## 1          ROOFTOP 2280 0.4394757
## 2 GEOMETRIC_CENTER 1927 0.3714341
## 3      APPROXIMATE  981 0.1890902

What this has done is improved the rooftop resolution by a couple of percentage points and improved the geometric centre results by about the same. The approximate score has dropped to 19% from 23% so this is definitely progress. In total 214 records have moved up from the approximate to the rooftop or geometric centre location_types. As this suggests, improving the quality of geocoding matters and it is therefore worth putting the effort into improving the resolution of the results.

3.3.1 Duplicated Affiliation Names

It will not have escaped your attention that in reality our original input data contained a significant amount of duplication on organisation names. This becomes obvious when we review the organisation edited field. We can rapidly see multiple entries.

affiliation2 %>% 
  count(organisation_edited, sort = TRUE)

## # A tibble: 4,042 × 2
##    organisation_edited              n
##    <chr>                        <int>
##  1 University Putra Malaysia       19
##  2 Chinese Academy Science         15
##  3 Mahidol University              15
##  4 Prince Songkla University       14
##  5 University Philippines          14
##  6 Cnrs                            12
##  7 Department Fisheries            12
##  8 Fisheries Research Agency       12
##  9 Indonesian Institute Science    12
## 10 Ministry Health                 12
## # … with 4,032 more rows
## # ℹ Use `print(n = ...)` to see more rows
…
Here we can see that the Google data suggests that some of these entities share an address. Based on this we may want (with appropriate attention to the location type field as a guide) to merge or not merge names in our list. If we take a look at the counts for shared addresses it becomes clear that we may want to use a step wise approach depending on the level of confidence in the location type field.

res_complete %>%
  filter(location_type == "ROOFTOP") %>% 
  count(formatted_address, sort = TRUE)

## # A tibble: 1,653 × 2
##    formatted_address                                                           n
##    <chr>                                                                   <int>
##  1 113 Soi Klong Luang 17, Tambon Khlong Nung, Amphoe Khlong Luang, Chang…    16
##  2 18 Hoàng Quốc Việt, Nghĩa Đô, Cầu Giấy, Hà Nội, Vietnam                    14
##  3 169 Long Had Bangsaen Rd, Tambon Saen Suk, อำเภอ เมืองชลบุรี Chang Wat Ch…    11
##  4 15 Karnjanavanit Soi 7 Rd, Kho Hong, Amphoe Hat Yai, Chang Wat Songkhl…     9
##  5 999 Phutthamonthon Sai 4 Rd, Tambon Salaya, Amphoe Phutthamonthon, Cha…     9
##  6 Jl. Pasir Putih Raya No.1, RT.8/RW.10, Kota Tua, Pademangan Tim., Pade…     9
##  7 New Administration Building, Miagao, 5023 Iloilo, Philippines               9
##  8 02 Nguyễn Đình Chiểu, Vĩnh Thọ, Thành phố Nha Trang, Vĩnh Thọ Thành ph…     8
##  9 Nørregade 10, 1165 København, Denmark                                       8
## 10 Pesthuislaan 7, 2333 BA Leiden, Netherlands                                 8
## # … with 1,643 more rows
## # ℹ Use `print(n = ...)` to see more rows
…
